<?xml version="1.0" encoding="UTF-8" standalone="no"?>
<!-- Created with Inkscape (http://www.inkscape.org/) -->

<svg
   width="32.077641mm"
   height="50mm"
   viewBox="0 0 32.07764 49.999999"
   version="1.1"
   id="svg1"
   inkscape:version="1.3 (0e150ed6c4, 2023-07-21)"
   sodipodi:docname="q-ia-c.svg"
   xmlns:inkscape="http://www.inkscape.org/namespaces/inkscape"
   xmlns:sodipodi="http://sodipodi.sourceforge.net/DTD/sodipodi-0.dtd"
   xmlns="http://www.w3.org/2000/svg"
   xmlns:svg="http://www.w3.org/2000/svg">
  <sodipodi:namedview
     id="namedview1"
     pagecolor="#ffffff"
     bordercolor="#000000"
     borderopacity="0.25"
     inkscape:showpageshadow="2"
     inkscape:pageopacity="0.0"
     inkscape:pagecheckerboard="0"
     inkscape:deskcolor="#d1d1d1"
     inkscape:document-units="mm"
     inkscape:zoom="0.15307255"
     inkscape:cx="522.628"
     inkscape:cy="1064.8545"
     inkscape:window-width="1366"
     inkscape:window-height="699"
     inkscape:window-x="0"
     inkscape:window-y="0"
     inkscape:window-maximized="1"
     inkscape:current-layer="layer1" />
  <defs
     id="defs1" />
  <g
     inkscape:label="Camada 1"
     inkscape:groupmode="layer"
     id="layer1"
     transform="translate(145.09234,281.77941)">
    <rect
       style="fill:#ffb788;fill-opacity:1;stroke-width:2.11819"
       id="rect279"
       width="30.551428"
       height="48.878269"
       x="-144.26611"
       y="-281.11816" />
    <g
       id="g282"
       style="fill:#3838c7;fill-opacity:1"
       transform="matrix(0.05345819,0,0,0.05345819,-838.52338,-413.31618)">
      <path
         id="path30"
         style="fill:#3838c7;fill-opacity:1;stroke-width:2.09305"
         d="m 12984.399,2993.3951 v 65.7288 h 1.803 v 323.6185 h 491.519 v 0.7751 h 80.861 v -272.3121 h -2.654 a 59.922272,59.922272 0 0 0 -59.26,-57.1479 v -0.3261 h -451.274 v -0.1276 a 59.922272,59.922272 0 0 1 -57.601,-59.7561 59.922272,59.922272 0 0 1 0.03,-0.4526 z" />
      <path
         id="path31"
         style="fill:#3838c7;fill-opacity:1;stroke-width:11.5449"
         d="m 12987.82,2460.5542 a 16.356456,16.356456 0 0 0 -16.355,16.3552 v 902.599 a 16.356456,16.356456 0 0 0 16.355,16.3562 h 567.34 a 16.356456,16.356456 0 0 0 16.356,-16.3562 v -902.599 a 16.356456,16.356456 0 0 0 -16.356,-16.3552 z m 0,16.3544 h 567.341 V 3379.51 h -567.341 z" />
      <path
         id="path44"
         style="opacity:1;fill:#3838c7;fill-opacity:1;stroke-width:3.71358"
         d="m 13147.052,2545.8968 a 17.634254,17.634254 0 0 0 -17.634,17.6344 17.634254,17.634254 0 0 0 17.634,17.6342 17.634254,17.634254 0 0 0 13.617,-6.4735 l 27.559,0.2629 v 68.1594 20.189 h -3.969 -0.113 a 23.241152,23.241152 0 0 0 -23.238,23.2385 v 13.9213 h -55.812 l -0.263,-27.5592 a 17.634254,17.634254 0 0 0 6.474,-13.6167 17.634254,17.634254 0 0 0 -17.634,-17.6342 17.634254,17.634254 0 0 0 -17.635,17.6342 17.634254,17.634254 0 0 0 8.808,15.221 v 37.6461 11.6905 h 76.062 v 34.7068 h -73.96 -20.918 c -3.349,-3.8711 -8.214,-6.0963 -13.334,-6.0968 -9.739,0 -17.635,7.8958 -17.635,17.635 0,9.7393 7.896,17.6344 17.635,17.6344 4.965,-0.011 9.697,-2.1121 13.032,-5.791 h 21.22 73.96 v 39.5709 h -76.062 v 11.6905 37.646 a 17.634254,17.634254 0 0 0 -8.808,15.2209 17.634254,17.634254 0 0 0 17.635,17.6344 17.634254,17.634254 0 0 0 17.634,-17.6344 17.634254,17.634254 0 0 0 -6.474,-13.6165 l 0.263,-27.5593 h 55.812 v 16.2299 a 23.241152,23.241152 0 0 0 23.238,23.2386 h 0.113 3.969 v 16.441 68.1595 l -27.559,0.2629 a 17.634254,17.634254 0 0 0 -13.617,-6.4736 17.634254,17.634254 0 0 0 -17.634,17.6343 17.634254,17.634254 0 0 0 17.634,17.6344 17.634254,17.634254 0 0 0 15.221,-8.8073 h 37.646 11.691 v -88.4102 -16.441 h 23.879 v 19.6167 20.9171 a 17.634254,17.634254 0 0 0 -6.097,13.3345 17.634254,17.634254 0 0 0 17.636,17.6344 17.634254,17.634254 0 0 0 17.633,-17.6344 17.634254,17.634254 0 0 0 -5.791,-13.0314 v -21.2202 -19.6167 h 25.241 v 19.6167 21.2202 a 17.634254,17.634254 0 0 0 -5.791,13.0314 17.634254,17.634254 0 0 0 17.635,17.6344 17.634254,17.634254 0 0 0 17.634,-17.6344 17.634254,17.634254 0 0 0 -6.096,-13.3345 v -20.9171 -19.6167 h 23.879 v 16.441 88.4102 h 11.69 37.646 a 17.634254,17.634254 0 0 0 15.221,8.8073 17.634254,17.634254 0 0 0 17.635,-17.6344 17.634254,17.634254 0 0 0 -17.635,-17.6343 17.634254,17.634254 0 0 0 -13.617,6.4736 l -27.559,-0.2629 v -68.1595 -16.441 h 3.969 0.113 a 23.241152,23.241152 0 0 0 23.239,-23.2386 v -16.2299 h 55.811 l 0.263,27.5593 a 17.634254,17.634254 0 0 0 -6.474,13.6165 17.634254,17.634254 0 0 0 17.635,17.6344 17.634254,17.634254 0 0 0 17.634,-17.6344 17.634254,17.634254 0 0 0 -8.807,-15.2209 v -37.646 -11.6905 h -76.062 v -39.5709 h 73.96 21.22 c 3.335,3.6789 8.066,5.7819 13.032,5.791 9.738,0 17.634,-7.8951 17.634,-17.6344 0,-9.7392 -7.896,-17.635 -17.634,-17.635 -5.119,5e-4 -9.985,2.2257 -13.335,6.0968 h -20.917 -73.96 v -34.7068 h 76.062 v -11.6905 -37.6461 a 17.634254,17.634254 0 0 0 8.807,-15.221 17.634254,17.634254 0 0 0 -17.634,-17.6342 17.634254,17.634254 0 0 0 -17.634,17.6342 17.634254,17.634254 0 0 0 6.473,13.6167 l -0.262,27.5592 h -55.812 v -13.9213 a 23.241152,23.241152 0 0 0 -23.239,-23.2385 h -0.113 -3.969 v -20.189 -68.1594 l 27.559,-0.2629 a 17.634254,17.634254 0 0 0 13.617,6.4735 17.634254,17.634254 0 0 0 17.635,-17.6342 17.634254,17.634254 0 0 0 -17.635,-17.6344 17.634254,17.634254 0 0 0 -15.22,8.8073 h -37.647 -11.69 v 88.4101 20.189 h -119.762 v -20.189 -88.4101 h -11.691 -37.646 a 17.634254,17.634254 0 0 0 -15.221,-8.8073 z m 99.976,42.7309 a 17.634254,17.634254 0 0 0 -17.636,17.6343 17.634254,17.634254 0 0 0 6.097,13.3345 v 20.9171 22.6942 h 11.69 11.691 v -22.6942 -21.22 a 17.634254,17.634254 0 0 0 5.791,-13.0316 17.634254,17.634254 0 0 0 -17.633,-17.6343 z m 48.927,0 a 17.634254,17.634254 0 0 0 -17.635,17.6343 17.634254,17.634254 0 0 0 5.791,13.0316 v 21.22 22.6942 h 11.691 11.691 v -22.6942 -20.9171 a 17.634254,17.634254 0 0 0 6.096,-13.3345 17.634254,17.634254 0 0 0 -17.634,-17.6343 z" />
    </g>
    <g
       id="g126"
       transform="matrix(0.05190031,0,0,0.05190031,-796.30609,-497.78117)"
       style="fill:#ffb788;fill-opacity:1">
      <text
         xml:space="preserve"
         style="font-weight:bold;font-size:93.1464px;font-family:Sans;-inkscape-font-specification:'Sans Bold';fill:#ffb788;fill-opacity:1;stroke-width:96.8133"
         x="12760.666"
         y="4772.8013"
         id="text116"
         transform="scale(0.98617693,1.0140168)"><tspan
           sodipodi:role="line"
           id="tspan109"
           style="fill:#ffb788;fill-opacity:1;stroke-width:96.8136"
           x="12760.666"
           y="4772.8013" /><tspan
           sodipodi:role="line"
           style="fill:#ffb788;fill-opacity:1;stroke-width:96.8136"
           x="12760.666"
           y="4889.2344"
           id="tspan116">ser humano</tspan></text>
      <text
         xml:space="preserve"
         style="font-weight:bold;font-size:87.5296px;font-family:Sans;-inkscape-font-specification:'Sans Bold';fill:#ffb788;fill-opacity:1;stroke-width:90.9749"
         x="12763.155"
         y="4806.1992"
         id="text117"
         transform="scale(0.98617693,1.0140168)"><tspan
           sodipodi:role="line"
           style="font-style:normal;font-variant:normal;font-weight:normal;font-stretch:normal;font-family:Sans;-inkscape-font-specification:Sans;fill:#ffb788;fill-opacity:1;stroke-width:90.9752"
           x="12763.155"
           y="4806.1992"
           id="tspan117">feito para um</tspan></text>
      <text
         xml:space="preserve"
         style="font-weight:bold;font-size:52.7546px;font-family:Sans;-inkscape-font-specification:'Sans Bold';fill:#ffb788;fill-opacity:1;stroke-width:54.8311"
         x="12585.255"
         y="5026.4282"
         id="text125"><tspan
           sodipodi:role="line"
           id="tspan124"
           style="fill:#ffb788;fill-opacity:1;stroke-width:54.8311"
           x="12585.255"
           y="5026.4282" /><tspan
           sodipodi:role="line"
           style="fill:#ffb788;fill-opacity:1;stroke-width:54.8311"
           x="12585.255"
           y="5092.3716"
           id="tspan125">inteligência artificial</tspan></text>
      <text
         xml:space="preserve"
         style="font-weight:bold;font-size:35.1873px;font-family:Sans;-inkscape-font-specification:'Sans Bold';white-space:pre;inline-size:0;fill:#ffb788;fill-opacity:1;stroke-width:36.5726"
         x="11575.993"
         y="2366.3726"
         id="text126"
         transform="matrix(2.1755899,0,0,2.1755899,-12604.55,-121.91701)"><tspan
           style="font-style:normal;font-variant:normal;font-weight:normal;font-stretch:normal;font-family:Sans;-inkscape-font-specification:Sans;fill:#ffb788;fill-opacity:1;stroke-width:36.5727"
           x="11575.993"
           y="2366.3726"
           id="tspan126">através de uma</tspan></text>
    </g>
  </g>
</svg>
