<?xml version="1.0" encoding="UTF-8" standalone="no"?>
<!-- Created with Inkscape (http://www.inkscape.org/) -->

<svg
   width="79.999863mm"
   height="38.910095mm"
   viewBox="0 0 79.999859 38.910095"
   version="1.1"
   id="svg1"
   inkscape:version="1.3 (0e150ed6c4, 2023-07-21)"
   sodipodi:docname="s-humano-p.svg"
   xmlns:inkscape="http://www.inkscape.org/namespaces/inkscape"
   xmlns:sodipodi="http://sodipodi.sourceforge.net/DTD/sodipodi-0.dtd"
   xmlns="http://www.w3.org/2000/svg"
   xmlns:svg="http://www.w3.org/2000/svg">
  <sodipodi:namedview
     id="namedview1"
     pagecolor="#ffffff"
     bordercolor="#000000"
     borderopacity="0.25"
     inkscape:showpageshadow="2"
     inkscape:pageopacity="0.0"
     inkscape:pagecheckerboard="0"
     inkscape:deskcolor="#d1d1d1"
     inkscape:document-units="mm"
     inkscape:zoom="0.038268137"
     inkscape:cx="1620.1468"
     inkscape:cy="1855.3294"
     inkscape:window-width="1366"
     inkscape:window-height="699"
     inkscape:window-x="0"
     inkscape:window-y="0"
     inkscape:window-maximized="1"
     inkscape:current-layer="layer1" />
  <defs
     id="defs1" />
  <g
     inkscape:label="Camada 1"
     inkscape:groupmode="layer"
     id="layer1"
     transform="translate(838.99306,694.00219)">
    <path
       id="path228"
       style="fill:#1a1a1a;stroke-width:0.24998"
       d="m -825.62978,-694.002 -0.005,10e-4 c -2.3603,0.005 -4.60625,0.93674 -6.27554,2.60606 -0.38988,0.38988 -0.72057,0.80205 -1.00777,1.21788 -0.019,0.0197 -0.0378,0.0398 -0.0563,0.06 -0.30571,0.45769 -0.5656,0.94025 -0.78051,1.44018 -0.37602,0.85654 -0.62288,1.77789 -0.71668,2.73471 -1.86024,1.46616 -3.09671,3.68154 -3.09671,6.25079 0,6.8e-4 0,10e-4 0,0.002 0,0.077 0.0116,0.14668 0.014,0.22229 -0.1091,0.16327 -0.21047,0.32573 -0.3027,0.48734 -0.0571,0.0896 -0.13265,0.20648 -0.22802,0.37839 v 10e-4 c -0.063,0.11372 -0.12117,0.23025 -0.17422,0.34894 v 6.8e-4 6.9e-4 c -0.14323,0.32072 -0.24959,0.62906 -0.33943,0.9256 -0.0293,0.0815 -0.0636,0.1772 -0.10281,0.30308 l -6.8e-4,0.002 c -0.0352,0.11342 -0.066,0.22828 -0.0923,0.34411 -0.12281,0.54095 -0.18432,1.09264 -0.19361,1.64684 v -0.0522 c -6.8e-4,0.0107 -10e-4,0.0213 -10e-4,0.032 -10e-4,0.0294 -0.002,0.0587 -0.002,0.0881 0,0.0116 -0.002,0.0231 -0.002,0.0347 0,0.008 0,0.0154 0,0.0231 0,0.008 0,0.0152 0,0.0228 0,0.0114 0.002,0.0227 0.002,0.0342 0,0.0301 6.8e-4,0.0602 0.002,0.0902 6.8e-4,0.0106 10e-4,0.021 0.002,0.0316 v -0.052 c 0.009,0.55291 0.0706,1.10352 0.19313,1.64362 0,0 0,3e-5 0,6.8e-4 0.0262,0.11559 0.0569,0.23013 0.092,0.34333 l 6.8e-4,0.002 c 0.0388,0.12471 0.0728,0.21912 0.102,0.3004 0.0902,0.29805 0.19708,0.60813 0.3412,0.93067 0.0533,0.11935 0.11182,0.23635 0.17524,0.35068 l 6.9e-4,8.2e-4 c 0.0926,0.16681 0.16534,0.27944 0.22248,0.36918 0.0936,0.16438 0.19668,0.32944 0.30734,0.4951 -0.002,0.0753 -0.0139,0.14486 -0.014,0.22144 v 9.6e-4 c 0,9.6e-4 0,0.002 0,0.003 0,2.56667 1.23476,4.77998 3.09213,6.24599 0.193,2.05644 1.09106,3.9817 2.56599,5.45663 1.67366,1.6736 3.92678,2.60713 6.29398,2.60712 0.0128,2e-5 0.0257,0 0.0384,0 0.006,2e-5 0.0118,2e-5 0.0178,0 1.9666,-0.0243 3.84677,-0.6958 5.37768,-1.89682 1.53105,1.2011 3.41122,1.87257 5.37775,1.89682 0.006,2e-5 0.0119,2e-5 0.0179,0 0.0127,0 0.0254,2e-5 0.0381,0 1.26603,0 2.49602,-0.27477 3.62572,-0.77927 a 3.769039,3.769039 0 0 0 2.95962,1.49147 h 45.39943 a 3.769039,3.769039 0 0 0 3.7686,-3.76859 v -31.1005 a 3.769039,3.769039 0 0 0 -3.7686,-3.76863 h -44.63878 a 3.769039,3.769039 0 0 0 -2.6144,1.10221 c -1.40646,-0.88501 -3.03772,-1.37042 -4.73152,-1.3704 -0.007,0 -0.0148,-2e-5 -0.0223,0 -0.006,-10e-4 -0.0126,-0.002 -0.0189,-0.004 -1.97008,0.0179 -3.85605,0.68491 -5.39249,1.88511 -1.53644,-1.20019 -3.42235,-1.8674 -5.39256,-1.88525 -0.004,-10e-6 -0.009,-10e-6 -0.013,0 -0.0139,-6e-5 -0.0278,-6e-5 -0.0417,0 z" />
    <g
       id="g271"
       style="fill:#ffffff"
       transform="matrix(0.06826806,0,0,0.06826806,-1751.8251,-969.23561)">
      <path
         id="path229"
         style="fill:#ffffff;fill-opacity:1;stroke-width:3.08615"
         d="m 13834.038,4090.8508 c 3.961,6.1112 7.416,12.491 10.278,19.1079 h 624.49 v 417.3497 h -631.83 c -4.062,6.7546 -8.778,13.1364 -14.08,19.1084 h 665.017 v -455.566 z" />
      <path
         id="path234"
         style="opacity:1;fill:#ffffff;fill-opacity:1;stroke-width:3.66174"
         d="m 13567.233,4074.2042 c -22.998,-2e-4 -45.853,9.4673 -62.115,25.729 -3.755,3.7545 -7.103,7.8925 -10.1,12.2705 h -0.194 c -3.04,4.5515 -5.651,9.3907 -7.804,14.4259 -4.911,11.1384 -7.632,23.243 -7.632,35.4186 a 24.126213,24.126213 0 0 0 0,0.014 c 0,3.657 0.283,7.3062 0.744,10.9339 -25.976,12.2593 -45.434,39.2868 -45.434,68.2917 a 24.126213,24.126213 0 0 0 0,0.015 c 0,5.6095 0.757,11.1934 2.007,16.6617 -0.988,1.0101 -2.066,1.9307 -2.996,2.995 l 1.464,-1.5345 c -1.558,1.4948 -3.052,3.0579 -4.476,4.6813 a 24.126213,24.126213 0 0 0 -1.322,1.6468 c -1.932,2.6355 -3.667,5.4099 -5.24,8.2738 -0.807,1.2698 -1.611,2.5424 -2.34,3.8585 a 24.126213,24.126213 0 0 0 -0.926,1.855 c -1.47,3.2899 -2.653,6.7012 -3.637,10.1677 -0.376,1.0409 -0.743,2.0849 -1.072,3.1412 a 24.126213,24.126213 0 0 0 -0.49,1.827 c -1.22,5.3683 -1.849,10.8725 -1.871,16.3777 a 24.126213,24.126213 0 0 0 0.01,0.1669 24.126213,24.126213 0 0 0 -0.01,0.1715 c 0.02,5.5041 0.651,11.0057 1.871,16.3732 a 24.126213,24.126213 0 0 0 0.487,1.8206 c 0.33,1.0592 0.698,2.1057 1.074,3.1492 0.985,3.4668 2.168,6.8781 3.638,10.1682 a 24.126213,24.126213 0 0 0 0.93,1.862 c 0.726,1.3098 1.527,2.5761 2.331,3.84 1.574,2.867 3.312,5.6459 5.245,8.2836 a 24.126213,24.126213 0 0 0 1.315,1.6405 c 0.963,1.0979 2.002,2.1241 3.026,3.1641 0.928,1.0616 2.003,1.9808 2.989,2.9887 -1.25,5.4675 -2.003,11.0505 -2.007,16.6593 a 24.126213,24.126213 0 0 0 0,0.014 c 0,29.0051 19.458,56.0325 45.434,68.2918 -0.461,3.6275 -0.742,7.2769 -0.744,10.9338 a 24.126213,24.126213 0 0 0 0,0.014 c 0,22.9977 9.468,45.8531 25.73,62.1149 16.262,16.2617 39.117,25.7297 62.115,25.7296 a 24.126213,24.126213 0 0 0 0.297,0 c 22.254,-0.2743 44.28,-9.3872 60.221,-24.9188 a 24.126213,24.126213 0 0 0 7.288,-17.2792 v -390.2372 a 24.126213,24.126213 0 0 0 -7.366,-17.3555 c -15.984,-15.4331 -38.004,-24.4441 -60.221,-24.6454 a 24.126213,24.126213 0 0 0 -0.219,0 z m 158.97,0 c -22.218,0.2013 -44.237,9.2123 -60.221,24.6454 a 24.126213,24.126213 0 0 0 -7.366,17.3554 v 390.2378 a 24.126213,24.126213 0 0 0 7.288,17.2791 c 15.94,15.5317 37.966,24.6446 60.221,24.9189 a 24.126213,24.126213 0 0 0 0.297,0 c 22.997,1e-4 45.853,-9.4679 62.115,-25.7297 16.262,-16.2618 25.73,-39.1171 25.729,-62.1149 0,-3.6569 -0.283,-7.3062 -0.743,-10.9338 25.975,-12.2593 45.434,-39.2868 45.433,-68.2917 a 24.126213,24.126213 0 0 1 0,-6e-4 c 0,-5.6089 -0.757,-11.1918 -2.007,-16.6594 0.987,-1.0078 2.061,-1.927 2.989,-2.9886 1.024,-1.04 2.064,-2.0662 3.026,-3.164 a 24.126213,24.126213 0 0 0 1.315,-1.6406 c 1.933,-2.6377 3.672,-5.4166 5.245,-8.2836 0.804,-1.2639 1.605,-2.5302 2.332,-3.8401 a 24.126213,24.126213 0 0 0 0.929,-1.8619 c 1.471,-3.2901 2.654,-6.7014 3.638,-10.1683 0.377,-1.0434 0.745,-2.09 1.074,-3.1491 a 24.126213,24.126213 0 0 0 0.488,-1.8207 c 1.219,-5.3673 1.849,-10.869 1.87,-16.3732 a 24.126213,24.126213 0 0 0 -0.01,-0.1715 24.126213,24.126213 0 0 0 0.01,-0.1667 c -0.02,-5.5053 -0.65,-11.0095 -1.87,-16.3779 a 24.126213,24.126213 0 0 0 -0.49,-1.8269 c -0.329,-1.0563 -0.697,-2.1003 -1.072,-3.1411 -0.985,-3.4666 -2.167,-6.8779 -3.638,-10.1678 a 24.126213,24.126213 0 0 0 -0.925,-1.855 c -0.73,-1.3161 -1.533,-2.5887 -2.341,-3.8585 -1.573,-2.8639 -3.308,-5.6383 -5.24,-8.2738 a 24.126213,24.126213 0 0 0 -1.322,-1.6469 c -1.424,-1.6233 -2.917,-3.1864 -4.475,-4.6812 l 1.463,1.5344 c -0.93,-1.0642 -2.007,-1.9849 -2.996,-2.9949 1.25,-5.4683 2.007,-11.0522 2.007,-16.6616 a 24.126213,24.126213 0 0 1 0,-7e-4 c 0,-29.005 -19.458,-56.0325 -45.433,-68.2917 0.46,-3.6276 0.743,-7.2769 0.743,-10.9338 a 24.126213,24.126213 0 0 1 0,-6e-4 c 0,-12.1755 -2.721,-24.2802 -7.631,-35.4185 -2.153,-5.0353 -4.764,-9.8746 -7.805,-14.426 h -0.194 c -2.997,-4.378 -6.345,-8.5159 -10.099,-12.2704 -16.262,-16.2619 -39.118,-25.7293 -62.115,-25.729 a 24.126213,24.126213 0 0 0 -0.219,0 z m -158.971,24.1229 a 63.720391,63.720391 0 0 1 43.684,17.8762 v 390.2389 a 63.720391,63.720391 0 0 1 -43.684,18.0762 63.720391,63.720391 0 0 1 -63.72,-63.7199 63.720391,63.720391 0 0 1 1.56,-13.5096 63.720391,63.720391 0 0 1 0.353,-1.6233 63.720391,63.720391 0 0 1 4.242,-11.8444 63.720391,63.720391 0 0 1 56.951,-36.2368 v -23.44 c -22.666,0.1232 -45.151,9.4879 -61.18,25.5163 -7.8,7.8 -14.006,17.1368 -18.355,27.2715 a 51.096044,51.096044 0 0 1 -28.261,-45.3742 51.096044,51.096044 0 0 1 6.509,-24.9262 51.096044,51.096044 0 0 1 -4.756,-3.1887 51.096044,51.096044 0 0 1 -3.851,-2.5816 51.096044,51.096044 0 0 1 -4.845,-4.8447 51.096044,51.096044 0 0 1 -3.047,-3.1876 51.096044,51.096044 0 0 1 -3.874,-6.1648 51.096044,51.096044 0 0 1 -2.066,-3.4032 51.096044,51.096044 0 0 1 -2.822,-8.0644 51.096044,51.096044 0 0 1 -0.878,-2.5758 51.096044,51.096044 0 0 1 -1.27,-11.1231 v -6e-4 a 51.096044,51.096044 0 0 1 0.01,-0.074 51.096044,51.096044 0 0 1 -0.01,-0.074 51.096044,51.096044 0 0 1 1.27,-11.1242 51.096044,51.096044 0 0 1 0.878,-2.5757 51.096044,51.096044 0 0 1 2.822,-8.0646 51.096044,51.096044 0 0 1 2.062,-3.3968 51.096044,51.096044 0 0 1 3.879,-6.1727 51.096044,51.096044 0 0 1 3.039,-3.1791 51.096044,51.096044 0 0 1 4.852,-4.8516 51.096044,51.096044 0 0 1 3.851,-2.5815 51.096044,51.096044 0 0 1 4.756,-3.1888 51.096044,51.096044 0 0 1 -6.509,-24.9263 51.096044,51.096044 0 0 1 28.519,-45.4814 c 4.336,9.9086 10.448,19.0388 18.097,26.6884 16.029,16.0284 38.514,25.3932 61.18,25.5163 v -23.4399 a 63.720391,63.720391 0 0 1 -58.712,-40.4641 63.720391,63.720391 0 0 1 -2.103,-5.8694 63.720391,63.720391 0 0 1 -0.901,-4.1601 63.720391,63.720391 0 0 1 -1.39,-12.0303 63.720391,63.720391 0 0 1 63.72,-63.7199 z m 159.19,0 a 63.720391,63.720391 0 0 1 63.721,63.7199 63.720391,63.720391 0 0 1 -1.39,12.0302 63.720391,63.720391 0 0 1 -0.902,4.1601 63.720391,63.720391 0 0 1 -2.102,5.8695 63.720391,63.720391 0 0 1 -58.713,40.4641 v 23.4398 c 22.666,-0.123 45.152,-9.4879 61.18,-25.5163 7.65,-7.6495 13.761,-16.7797 18.098,-26.6882 a 51.096044,51.096044 0 0 1 28.518,45.4813 51.096044,51.096044 0 0 1 -6.508,24.9262 51.096044,51.096044 0 0 1 4.755,3.1889 51.096044,51.096044 0 0 1 3.851,2.5814 51.096044,51.096044 0 0 1 4.852,4.8517 51.096044,51.096044 0 0 1 3.04,3.179 51.096044,51.096044 0 0 1 3.878,6.1728 51.096044,51.096044 0 0 1 2.063,3.3969 51.096044,51.096044 0 0 1 2.822,8.0645 51.096044,51.096044 0 0 1 0.878,2.5757 51.096044,51.096044 0 0 1 1.27,11.1242 51.096044,51.096044 0 0 1 -0.01,0.074 51.096044,51.096044 0 0 1 0.01,0.074 v 6e-4 a 51.096044,51.096044 0 0 1 -1.27,11.123 51.096044,51.096044 0 0 1 -0.878,2.5758 51.096044,51.096044 0 0 1 -2.822,8.0645 51.096044,51.096044 0 0 1 -2.067,3.4032 51.096044,51.096044 0 0 1 -3.874,6.1647 51.096044,51.096044 0 0 1 -3.047,3.1876 51.096044,51.096044 0 0 1 -4.845,4.8449 51.096044,51.096044 0 0 1 -3.851,2.5814 51.096044,51.096044 0 0 1 -4.755,3.1888 51.096044,51.096044 0 0 1 6.508,24.9262 51.096044,51.096044 0 0 1 -28.26,45.3742 c -4.35,-10.1347 -10.556,-19.4716 -18.356,-27.2716 -16.028,-16.0283 -38.514,-25.3931 -61.18,-25.5162 v 23.4399 a 63.720391,63.720391 0 0 1 56.952,36.2369 63.720391,63.720391 0 0 1 4.242,11.8443 63.720391,63.720391 0 0 1 0.352,1.6234 63.720391,63.720391 0 0 1 1.561,13.5096 63.720391,63.720391 0 0 1 -63.721,63.7199 63.720391,63.720391 0 0 1 -43.684,-18.0763 v -390.2389 a 63.720391,63.720391 0 0 1 43.684,-17.8761 z m -191.042,170.4063 a 63.720391,63.720391 0 0 1 10.229,16.3302 63.720391,63.720391 0 0 1 -12.638,69.0498 h 29.265 c 2.186,-3.7052 4.1,-7.5708 5.701,-11.568 8.485,-21.182 8.198,-45.7266 -0.78,-66.7046 -1.038,-2.4253 -2.204,-4.7922 -3.463,-7.1074 z m 194.581,0 c -1.26,2.3152 -2.426,4.6821 -3.463,7.1074 -8.978,20.978 -9.266,45.5226 -0.78,66.7046 1.601,3.9972 3.514,7.8628 5.7,11.568 h 29.266 a 63.720391,63.720391 0 0 1 -12.638,-69.0498 63.720391,63.720391 0 0 1 10.229,-16.3302 z" />
      <g
         id="g239"
         transform="translate(1297.6518,7.575995)"
         style="fill:#ffffff">
        <text
           xml:space="preserve"
           style="font-weight:bold;font-size:91.4622px;font-family:Sans;-inkscape-font-specification:'Sans Bold';fill:#ffffff;stroke-width:95.0627"
           x="12782.337"
           y="4136.1572"
           id="text235"
           transform="scale(0.98617695,1.0140168)"><tspan
             sodipodi:role="line"
             id="tspan234"
             style="fill:#ffffff;stroke-width:95.0632"
             x="12782.337"
             y="4136.1572" /><tspan
             sodipodi:role="line"
             style="fill:#ffffff;stroke-width:95.0632"
             x="12782.337"
             y="4250.4849"
             id="tspan235">ser humano</tspan></text>
        <text
           xml:space="preserve"
           style="font-weight:bold;font-size:93.9206px;font-family:Sans;-inkscape-font-specification:'Sans Bold';fill:#ffffff;stroke-width:97.6175"
           x="12784.662"
           y="4171.0439"
           id="text236"
           transform="scale(0.98617695,1.0140168)"><tspan
             sodipodi:role="line"
             style="font-style:normal;font-variant:normal;font-weight:normal;font-stretch:normal;font-family:Sans;-inkscape-font-specification:Sans;fill:#ffffff;stroke-width:97.6178"
             x="12784.662"
             y="4171.0439"
             id="tspan236">feito por um</tspan></text>
        <text
           xml:space="preserve"
           style="font-weight:bold;font-size:51.8008px;font-family:Sans;-inkscape-font-specification:'Sans Bold';fill:#ffffff;stroke-width:53.8397"
           x="12606.608"
           y="4388.2358"
           id="text238"><tspan
             sodipodi:role="line"
             id="tspan237"
             style="fill:#ffffff;stroke-width:53.8397"
             x="12606.608"
             y="4388.2358" /><tspan
             sodipodi:role="line"
             style="fill:#ffffff;stroke-width:53.8397"
             x="12606.608"
             y="4452.9868"
             id="tspan238">inteligência artificial</tspan></text>
        <text
           xml:space="preserve"
           style="font-weight:bold;font-size:35.1873px;font-family:Sans;-inkscape-font-specification:'Sans Bold';white-space:pre;inline-size:0;fill:#ffffff;stroke-width:36.5726"
           x="11575.993"
           y="2366.3726"
           id="text239"
           transform="matrix(2.8355234,0,0,2.8355234,-20218.326,-2317.2418)"><tspan
             style="font-style:normal;font-variant:normal;font-weight:normal;font-stretch:normal;font-family:Sans;-inkscape-font-specification:Sans;fill:#ffffff;stroke-width:36.5727"
             x="11575.993"
             y="2366.3726"
             id="tspan239">sem uso de </tspan></text>
      </g>
    </g>
  </g>
</svg>
