<?xml version="1.0" encoding="UTF-8" standalone="no"?>
<!-- Created with Inkscape (http://www.inkscape.org/) -->

<svg
   width="79.999863mm"
   height="38.910095mm"
   viewBox="0 0 79.999859 38.910095"
   version="1.1"
   id="svg1"
   inkscape:version="1.3 (0e150ed6c4, 2023-07-21)"
   sodipodi:docname="s-human-c.svg"
   xmlns:inkscape="http://www.inkscape.org/namespaces/inkscape"
   xmlns:sodipodi="http://sodipodi.sourceforge.net/DTD/sodipodi-0.dtd"
   xmlns="http://www.w3.org/2000/svg"
   xmlns:svg="http://www.w3.org/2000/svg">
  <sodipodi:namedview
     id="namedview1"
     pagecolor="#ffffff"
     bordercolor="#000000"
     borderopacity="0.25"
     inkscape:showpageshadow="2"
     inkscape:pageopacity="0.0"
     inkscape:pagecheckerboard="0"
     inkscape:deskcolor="#d1d1d1"
     inkscape:document-units="mm"
     inkscape:zoom="0.86590909"
     inkscape:cx="180.15748"
     inkscape:cy="75.065617"
     inkscape:window-width="1366"
     inkscape:window-height="699"
     inkscape:window-x="0"
     inkscape:window-y="0"
     inkscape:window-maximized="1"
     inkscape:current-layer="layer1" />
  <defs
     id="defs1" />
  <g
     inkscape:label="Camada 1"
     inkscape:groupmode="layer"
     id="layer1"
     transform="translate(838.99306,694.00219)">
    <path
       id="path228"
       style="fill:#3838c7;fill-opacity:1;stroke-width:0.24998"
       d="m -825.62978,-694.002 -0.005,10e-4 c -2.3603,0.005 -4.60625,0.93674 -6.27554,2.60606 -0.38988,0.38988 -0.72057,0.80205 -1.00777,1.21788 -0.019,0.0197 -0.0378,0.0398 -0.0563,0.06 -0.30571,0.45769 -0.5656,0.94025 -0.78051,1.44018 -0.37602,0.85654 -0.62288,1.77789 -0.71668,2.73471 -1.86024,1.46616 -3.09671,3.68154 -3.09671,6.25079 0,6.8e-4 0,10e-4 0,0.002 0,0.077 0.0116,0.14668 0.014,0.22229 -0.1091,0.16327 -0.21047,0.32573 -0.3027,0.48734 -0.0571,0.0896 -0.13265,0.20648 -0.22802,0.37839 v 10e-4 c -0.063,0.11372 -0.12117,0.23025 -0.17422,0.34894 v 6.8e-4 6.9e-4 c -0.14323,0.32072 -0.24959,0.62906 -0.33943,0.9256 -0.0293,0.0815 -0.0636,0.1772 -0.10281,0.30308 l -6.8e-4,0.002 c -0.0352,0.11342 -0.066,0.22828 -0.0923,0.34411 -0.12281,0.54095 -0.18432,1.09264 -0.19361,1.64684 v -0.0522 c -6.8e-4,0.0107 -10e-4,0.0213 -10e-4,0.032 -10e-4,0.0294 -0.002,0.0587 -0.002,0.0881 0,0.0116 -0.002,0.0231 -0.002,0.0347 0,0.008 0,0.0154 0,0.0231 0,0.008 0,0.0152 0,0.0228 0,0.0114 0.002,0.0227 0.002,0.0342 0,0.0301 6.8e-4,0.0602 0.002,0.0902 6.8e-4,0.0106 10e-4,0.021 0.002,0.0316 v -0.052 c 0.009,0.55291 0.0706,1.10352 0.19313,1.64362 0,0 0,3e-5 0,6.8e-4 0.0262,0.11559 0.0569,0.23013 0.092,0.34333 l 6.8e-4,0.002 c 0.0388,0.12471 0.0728,0.21912 0.102,0.3004 0.0902,0.29805 0.19708,0.60813 0.3412,0.93067 0.0533,0.11935 0.11182,0.23635 0.17524,0.35068 l 6.9e-4,8.2e-4 c 0.0926,0.16681 0.16534,0.27944 0.22248,0.36918 0.0936,0.16438 0.19668,0.32944 0.30734,0.4951 -0.002,0.0753 -0.0139,0.14486 -0.014,0.22144 v 9.6e-4 c 0,9.6e-4 0,0.002 0,0.003 0,2.56667 1.23476,4.77998 3.09213,6.24599 0.193,2.05644 1.09106,3.9817 2.56599,5.45663 1.67366,1.6736 3.92678,2.60713 6.29398,2.60712 0.0128,2e-5 0.0257,0 0.0384,0 0.006,2e-5 0.0118,2e-5 0.0178,0 1.9666,-0.0243 3.84677,-0.6958 5.37768,-1.89682 1.53105,1.2011 3.41122,1.87257 5.37775,1.89682 0.006,2e-5 0.0119,2e-5 0.0179,0 0.0127,0 0.0254,2e-5 0.0381,0 1.26603,0 2.49602,-0.27477 3.62572,-0.77927 a 3.769039,3.769039 0 0 0 2.95962,1.49147 h 45.39943 a 3.769039,3.769039 0 0 0 3.7686,-3.76859 v -31.1005 a 3.769039,3.769039 0 0 0 -3.7686,-3.76863 h -44.63878 a 3.769039,3.769039 0 0 0 -2.6144,1.10221 c -1.40646,-0.88501 -3.03772,-1.37042 -4.73152,-1.3704 -0.007,0 -0.0148,-2e-5 -0.0223,0 -0.006,-10e-4 -0.0126,-0.002 -0.0189,-0.004 -1.97008,0.0179 -3.85605,0.68491 -5.39249,1.88511 -1.53644,-1.20019 -3.42235,-1.8674 -5.39256,-1.88525 -0.004,-10e-6 -0.009,-10e-6 -0.013,0 -0.0139,-6e-5 -0.0278,-6e-5 -0.0417,0 z" />
    <g
       id="g1">
      <path
         id="path229"
         style="fill:#ffb788;fill-opacity:1;stroke-width:0.210685"
         d="m -807.40216,-689.96116 c 0.27041,0.4172 0.50627,0.85273 0.70166,1.30446 h 42.63272 v 28.49165 h -43.13381 c -0.27731,0.46112 -0.59926,0.8968 -0.96122,1.30449 h 45.39942 v -31.1006 z" />
      <path
         id="path234"
         style="fill:#ffb788;fill-opacity:1;stroke-width:0.24998"
         d="m -825.61642,-691.09759 c -1.57003,-2e-5 -3.1303,0.64631 -4.24047,1.75647 -0.25635,0.25631 -0.48491,0.5388 -0.68951,0.83768 h -0.0133 c -0.20753,0.31072 -0.38578,0.64108 -0.53276,0.98483 -0.33526,0.76039 -0.52102,1.58675 -0.52102,2.41796 a 1.6470498,1.6470498 0 0 0 0,9.5e-4 c 0,0.24966 0.0193,0.49878 0.0508,0.74644 -1.77333,0.83692 -3.10169,2.68203 -3.10169,4.66214 a 1.6470498,1.6470498 0 0 0 0,10e-4 c 0,0.38295 0.0517,0.76416 0.13701,1.13747 -0.0675,0.0689 -0.14104,0.1318 -0.20453,0.20446 l 0.1,-0.10476 c -0.10637,0.10205 -0.20836,0.20876 -0.30557,0.31958 a 1.6470498,1.6470498 0 0 0 -0.0903,0.11243 c -0.1319,0.17992 -0.25034,0.36932 -0.35773,0.56483 -0.0551,0.0867 -0.10998,0.17357 -0.15974,0.26342 a 1.6470498,1.6470498 0 0 0 -0.0632,0.12663 c -0.10035,0.2246 -0.18112,0.45748 -0.24829,0.69413 -0.0257,0.0711 -0.0507,0.14234 -0.0732,0.21445 a 1.6470498,1.6470498 0 0 0 -0.0335,0.12472 c -0.0833,0.36649 -0.12622,0.74225 -0.12773,1.11808 a 1.6470498,1.6470498 0 0 0 6.9e-4,0.0114 1.6470498,1.6470498 0 0 0 -6.9e-4,0.0117 c 10e-4,0.37575 0.0444,0.75134 0.12773,1.11777 a 1.6470498,1.6470498 0 0 0 0.0333,0.12428 c 0.0225,0.0723 0.0476,0.14376 0.0733,0.21499 0.0672,0.23668 0.14801,0.46956 0.24836,0.69417 a 1.6470498,1.6470498 0 0 0 0.0635,0.12711 c 0.0496,0.0894 0.10424,0.17587 0.15913,0.26215 0.10746,0.19573 0.22611,0.38544 0.35807,0.56551 a 1.6470498,1.6470498 0 0 0 0.0898,0.11199 c 0.0657,0.0749 0.13667,0.14501 0.20658,0.21601 0.0634,0.0725 0.13674,0.13522 0.20405,0.20403 -0.0853,0.37326 -0.13674,0.7544 -0.13701,1.1373 a 1.6470498,1.6470498 0 0 0 0,9.5e-4 c 0,1.98013 1.32836,3.82523 3.10169,4.66215 -0.0315,0.24765 -0.0507,0.49678 -0.0508,0.74643 a 1.6470498,1.6470498 0 0 0 0,9.6e-4 c 0,1.57001 0.64636,3.1303 1.75654,4.24046 1.11017,1.11016 2.67044,1.75652 4.24047,1.75651 a 1.6470498,1.6470498 0 0 0 0.0203,0 c 1.51924,-0.0187 3.02291,-0.64084 4.11117,-1.70116 a 1.6470498,1.6470498 0 0 0 0.49754,-1.17961 v -26.64074 a 1.6470498,1.6470498 0 0 0 -0.50286,-1.18483 c -1.0912,-1.05358 -2.59446,-1.66875 -4.11117,-1.68249 a 1.6470498,1.6470498 0 0 0 -0.0149,0 z m 10.85257,0 c -1.51678,0.0137 -3.01997,0.6289 -4.11117,1.68249 a 1.6470498,1.6470498 0 0 0 -0.50286,1.18482 v 26.64078 a 1.6470498,1.6470498 0 0 0 0.49753,1.17961 c 1.0882,1.06032 2.59187,1.68244 4.11118,1.70116 a 1.6470498,1.6470498 0 0 0 0.0203,0 c 1.56996,10e-6 3.1303,-0.64635 4.24047,-1.75651 1.11018,-1.11017 1.75654,-2.67045 1.75647,-4.24047 0,-0.24965 -0.0193,-0.49878 -0.0507,-0.74643 1.77326,-0.83692 3.10169,-2.68203 3.10162,-4.66214 a 1.6470498,1.6470498 0 0 1 0,-4e-5 c 0,-0.38291 -0.0517,-0.76404 -0.13701,-1.1373 0.0674,-0.0688 0.1407,-0.13156 0.20405,-0.20403 0.0699,-0.071 0.1409,-0.14106 0.20658,-0.216 a 1.6470498,1.6470498 0 0 0 0.0898,-0.112 c 0.13196,-0.18007 0.25068,-0.36978 0.35807,-0.56551 0.0549,-0.0863 0.10957,-0.17273 0.1592,-0.26215 a 1.6470498,1.6470498 0 0 0 0.0634,-0.12711 c 0.10042,-0.22461 0.18118,-0.45749 0.24836,-0.69417 0.0257,-0.0712 0.0509,-0.14268 0.0733,-0.21498 a 1.6470498,1.6470498 0 0 0 0.0333,-0.1243 c 0.0832,-0.36641 0.12623,-0.74201 0.12766,-1.11777 a 1.6470498,1.6470498 0 0 0 -6.8e-4,-0.0117 1.6470498,1.6470498 0 0 0 6.8e-4,-0.0114 c -10e-4,-0.37584 -0.0444,-0.7516 -0.12766,-1.11809 a 1.6470498,1.6470498 0 0 0 -0.0335,-0.12472 c -0.0225,-0.0721 -0.0476,-0.14338 -0.0732,-0.21444 -0.0673,-0.23666 -0.14794,-0.46954 -0.24836,-0.69413 a 1.6470498,1.6470498 0 0 0 -0.0631,-0.12664 c -0.0498,-0.0898 -0.10465,-0.17673 -0.15981,-0.26341 -0.10739,-0.19552 -0.22584,-0.38492 -0.35773,-0.56484 a 1.6470498,1.6470498 0 0 0 -0.0902,-0.11243 c -0.0972,-0.11082 -0.19914,-0.21753 -0.3055,-0.31958 l 0.0999,0.10475 c -0.0635,-0.0726 -0.13702,-0.1355 -0.20453,-0.20445 0.0853,-0.37331 0.13701,-0.75451 0.13701,-1.13746 a 1.6470498,1.6470498 0 0 1 0,-4e-5 c 0,-1.98012 -1.32836,-3.82524 -3.10162,-4.66215 0.0314,-0.24765 0.0507,-0.49678 0.0507,-0.74643 a 1.6470498,1.6470498 0 0 1 0,-4e-5 c 0,-0.83119 -0.18576,-1.65756 -0.52095,-2.41795 -0.14698,-0.34375 -0.32523,-0.67412 -0.53284,-0.98483 h -0.0132 c -0.2046,-0.29888 -0.43316,-0.58137 -0.68944,-0.83768 -1.11017,-1.11017 -2.67051,-1.75649 -4.24047,-1.75647 a 1.6470498,1.6470498 0 0 0 -0.0149,0 z m -10.85264,1.64682 a 4.3500675,4.3500675 0 0 1 2.98222,1.22037 v 26.64086 a 4.3500675,4.3500675 0 0 1 -2.98222,1.23402 4.3500675,4.3500675 0 0 1 -4.35004,-4.35003 4.3500675,4.3500675 0 0 1 0.1065,-0.92227 4.3500675,4.3500675 0 0 1 0.0241,-0.11082 4.3500675,4.3500675 0 0 1 0.2896,-0.8086 4.3500675,4.3500675 0 0 1 3.88793,-2.47381 v -1.60021 c -1.54736,0.008 -3.08237,0.64772 -4.17664,1.74195 -0.53249,0.53249 -0.95616,1.1699 -1.25306,1.86177 a 3.4882278,3.4882278 0 0 1 -1.92932,-3.09761 3.4882278,3.4882278 0 0 1 0.44435,-1.70166 3.4882278,3.4882278 0 0 1 -0.32468,-0.21769 3.4882278,3.4882278 0 0 1 -0.2629,-0.17624 3.4882278,3.4882278 0 0 1 -0.33076,-0.33073 3.4882278,3.4882278 0 0 1 -0.20801,-0.21762 3.4882278,3.4882278 0 0 1 -0.26447,-0.42085 3.4882278,3.4882278 0 0 1 -0.14104,-0.23233 3.4882278,3.4882278 0 0 1 -0.19265,-0.55055 3.4882278,3.4882278 0 0 1 -0.0599,-0.17584 3.4882278,3.4882278 0 0 1 -0.0867,-0.75935 v -4e-5 a 3.4882278,3.4882278 0 0 1 6.8e-4,-0.005 3.4882278,3.4882278 0 0 1 -6.8e-4,-0.005 3.4882278,3.4882278 0 0 1 0.0867,-0.75942 3.4882278,3.4882278 0 0 1 0.0599,-0.17584 3.4882278,3.4882278 0 0 1 0.19265,-0.55056 3.4882278,3.4882278 0 0 1 0.14077,-0.23189 3.4882278,3.4882278 0 0 1 0.26481,-0.4214 3.4882278,3.4882278 0 0 1 0.20746,-0.21703 3.4882278,3.4882278 0 0 1 0.33124,-0.33121 3.4882278,3.4882278 0 0 1 0.2629,-0.17623 3.4882278,3.4882278 0 0 1 0.32468,-0.2177 3.4882278,3.4882278 0 0 1 -0.44435,-1.70167 3.4882278,3.4882278 0 0 1 1.94693,-3.10492 c 0.29601,0.67644 0.71327,1.29974 1.23545,1.82196 1.09427,1.09423 2.62928,1.73355 4.17664,1.74195 v -1.6002 a 4.3500675,4.3500675 0 0 1 -4.00815,-2.7624 4.3500675,4.3500675 0 0 1 -0.14357,-0.40069 4.3500675,4.3500675 0 0 1 -0.0615,-0.28401 4.3500675,4.3500675 0 0 1 -0.0949,-0.82128 4.3500675,4.3500675 0 0 1 4.35004,-4.35004 z m 10.86759,0 a 4.3500675,4.3500675 0 0 1 4.35011,4.35003 4.3500675,4.3500675 0 0 1 -0.0949,0.82128 4.3500675,4.3500675 0 0 1 -0.0616,0.284 4.3500675,4.3500675 0 0 1 -0.1435,0.4007 4.3500675,4.3500675 0 0 1 -4.00822,2.76241 v 1.60019 c 1.54736,-0.008 3.08244,-0.64772 4.17664,-1.74195 0.52225,-0.52222 0.93943,-1.14552 1.23551,-1.82195 a 3.4882278,3.4882278 0 0 1 1.94687,3.10492 3.4882278,3.4882278 0 0 1 -0.44429,1.70166 3.4882278,3.4882278 0 0 1 0.32462,0.2177 3.4882278,3.4882278 0 0 1 0.2629,0.17623 3.4882278,3.4882278 0 0 1 0.33123,0.33122 3.4882278,3.4882278 0 0 1 0.20754,0.21702 3.4882278,3.4882278 0 0 1 0.26474,0.42141 3.4882278,3.4882278 0 0 1 0.14084,0.2319 3.4882278,3.4882278 0 0 1 0.19265,0.55054 3.4882278,3.4882278 0 0 1 0.0599,0.17584 3.4882278,3.4882278 0 0 1 0.0867,0.75943 3.4882278,3.4882278 0 0 1 -6.8e-4,0.005 3.4882278,3.4882278 0 0 1 6.8e-4,0.005 v 4e-5 a 3.4882278,3.4882278 0 0 1 -0.0867,0.75935 3.4882278,3.4882278 0 0 1 -0.0599,0.17584 3.4882278,3.4882278 0 0 1 -0.19265,0.55055 3.4882278,3.4882278 0 0 1 -0.14111,0.23233 3.4882278,3.4882278 0 0 1 -0.26447,0.42085 3.4882278,3.4882278 0 0 1 -0.20801,0.21761 3.4882278,3.4882278 0 0 1 -0.33076,0.33076 3.4882278,3.4882278 0 0 1 -0.2629,0.17622 3.4882278,3.4882278 0 0 1 -0.32462,0.2177 3.4882278,3.4882278 0 0 1 0.44429,1.70166 3.4882278,3.4882278 0 0 1 -1.92925,3.09761 c -0.29697,-0.69188 -0.72064,-1.32929 -1.25313,-1.86178 -1.0942,-1.09422 -2.62928,-1.73354 -4.17664,-1.74194 v 1.60019 a 4.3500675,4.3500675 0 0 1 3.888,2.47383 4.3500675,4.3500675 0 0 1 0.28959,0.80858 4.3500675,4.3500675 0 0 1 0.024,0.11083 4.3500675,4.3500675 0 0 1 0.10657,0.92228 4.3500675,4.3500675 0 0 1 -4.35011,4.35003 4.3500675,4.3500675 0 0 1 -2.98222,-1.23403 v -26.64086 a 4.3500675,4.3500675 0 0 1 2.98222,-1.22036 z m -13.04207,11.63331 a 4.3500675,4.3500675 0 0 1 0.69832,1.11483 4.3500675,4.3500675 0 0 1 -0.86277,4.71389 h 1.99786 c 0.14923,-0.25294 0.2799,-0.51684 0.3892,-0.78972 0.57925,-1.44605 0.55966,-3.12167 -0.0533,-4.55379 -0.0709,-0.16557 -0.15046,-0.32716 -0.23641,-0.48521 z m 13.28367,0 c -0.086,0.15805 -0.16562,0.31964 -0.23641,0.48521 -0.61291,1.43212 -0.63257,3.10774 -0.0533,4.55379 0.1093,0.27288 0.23989,0.53678 0.38913,0.78972 h 1.99793 a 4.3500675,4.3500675 0 0 1 -0.86277,-4.71389 4.3500675,4.3500675 0 0 1 0.69831,-1.11483 z" />
      <g
         id="g8"
         transform="matrix(1.7518349,0,0,1.7518349,-529.32454,-856.07266)"
         style="fill:#ffb788;fill-opacity:1">
        <text
           xml:space="preserve"
           style="font-size:4.49308px;font-family:Sans;-inkscape-font-specification:Sans;text-align:end;text-anchor:end;fill:#ffb788;stroke-width:4.81149;fill-opacity:1"
           x="-134.66479"
           y="100.86028"
           id="text5"><tspan
             sodipodi:role="line"
             id="tspan5"
             style="fill:#ffb788;stroke-width:4.81149;fill-opacity:1"
             x="-134.66479"
             y="100.86028">made by a</tspan></text>
        <text
           xml:space="preserve"
           style="font-size:3.25434px;font-family:Sans;-inkscape-font-specification:Sans;text-align:end;text-anchor:end;fill:#ffb788;stroke-width:3.48496;fill-opacity:1"
           x="-134.7749"
           y="104.22756"
           id="text6"><tspan
             sodipodi:role="line"
             id="tspan6"
             style="font-style:normal;font-variant:normal;font-weight:bold;font-stretch:normal;font-family:Sans;-inkscape-font-specification:'Sans Bold';stroke-width:3.48496;fill:#ffb788;fill-opacity:1"
             x="-134.7749"
             y="104.22756">human being</tspan></text>
        <text
           xml:space="preserve"
           style="font-size:2.18334px;font-family:Sans;-inkscape-font-specification:Sans;text-align:end;text-anchor:end;fill:#ffb788;stroke-width:2.33807;fill-opacity:1"
           x="-134.8519"
           y="106.85884"
           id="text7"><tspan
             sodipodi:role="line"
             id="tspan7"
             style="stroke-width:2.33807;fill:#ffb788;fill-opacity:1"
             x="-134.8519"
             y="106.85884">without the help of a</tspan></text>
        <text
           xml:space="preserve"
           style="font-size:2.05926px;font-family:Sans;-inkscape-font-specification:Sans;text-align:end;text-anchor:end;fill:#ffb788;stroke-width:2.2052;fill-opacity:1"
           x="-134.9402"
           y="109.30067"
           id="text8"><tspan
             sodipodi:role="line"
             id="tspan8"
             style="font-style:normal;font-variant:normal;font-weight:bold;font-stretch:normal;font-family:Sans;-inkscape-font-specification:'Sans Bold';stroke-width:2.2052;fill:#ffb788;fill-opacity:1"
             x="-134.9402"
             y="109.30067">artificial intelligence</tspan></text>
      </g>
    </g>
  </g>
</svg>
